email was sent at: 2017-11-24 03:43:11
email was sent at: 2017-11-24 03:43:13
email was sent at: 2017-11-24 03:43:47
login at: 2017-11-24 03:47:43
logout at: 2017-11-24 03:47:52
login at: 2017-11-24 04:07:32
logout at: 2017-11-24 04:07:34
email was sent at: 2017-11-24 04:07:39
email was sent at: 2017-11-24 04:07:47
